{
  "KPackageStructure": "KWin/Script",
  "KPlugin": {
    "Authors": [
      {
        "Email": "",
        "Name": "Jeff Glover"
      }
    ],
    "Description": "Keep new windows off a specific screen and move to a preferred screen",
    "Icon": "preferences-system-windows-script-test",
    "Id": "keep-windows-off-screen",
    "License": "MIT",
    "Name": "Keep Windows Off Screen"
  },
  "X-Plasma-API": "javascript",
  "X-Plasma-MainScript": "code/main.qmljs",
  "X-KDE-ConfigModule": "kwin/effects/configs/kcm_kwin4_genericscripted"
}
